{
    "/js/admin.js": "/js/admin.js",
    "/css/app.css": "/css/app.css",
    "/js/jquery.js": "/js/jquery.js",
    "/js/vue.js": "/js/vue.js",
    "/assets/css/all-plugins.css": "/assets/css/all-plugins.css",
    "/assets/js/all-plugins.js": "/assets/js/all-plugins.js"
}
